{
  "project_info": {
    "project_number": "1056003638522",
    "project_id": "flutter003-479fd",
    "storage_bucket": "flutter003-479fd.appspot.com"
  },
  "client": [
    {
      "client_info": {
        "mobilesdk_app_id": "1:1056003638522:android:0d982dad4554e82ff73543",
        "android_client_info": {
          "package_name": "com.example.flutter003"
        }
      },
      "oauth_client": [
        {
          "client_id": "1056003638522-e4vori45qmjf82e33l56as26no8a0ee0.apps.googleusercontent.com",
          "client_type": 3
        }
      ],
      "api_key": [
        {
          "current_key": "AIzaSyAxyNv6LwqnJ58QxcC-Vsv6nWxoP7o5_0I"
        }
      ],
      "services": {
        "appinvite_service": {
          "other_platform_oauth_client": [
            {
              "client_id": "1056003638522-e4vori45qmjf82e33l56as26no8a0ee0.apps.googleusercontent.com",
              "client_type": 3
            }
          ]
        }
      }
    },
    {
      "client_info": {
        "mobilesdk_app_id": "1:1056003638522:android:356ce9254fd51a83f73543",
        "android_client_info": {
          "package_name": "com.example.flutter_auth_003"
        }
      },
      "oauth_client": [
        {
          "client_id": "1056003638522-e4vori45qmjf82e33l56as26no8a0ee0.apps.googleusercontent.com",
          "client_type": 3
        }
      ],
      "api_key": [
        {
          "current_key": "AIzaSyAxyNv6LwqnJ58QxcC-Vsv6nWxoP7o5_0I"
        }
      ],
      "services": {
        "appinvite_service": {
          "other_platform_oauth_client": [
            {
              "client_id": "1056003638522-e4vori45qmjf82e33l56as26no8a0ee0.apps.googleusercontent.com",
              "client_type": 3
            }
          ]
        }
      }
    }
  ],
  "configuration_version": "1"
}